{
  "project_info": {
    "project_number": "286438474335",
    "firebase_url": "https://bbd2018-471ab.firebaseio.com",
    "project_id": "bbd2018-471ab",
    "storage_bucket": "bbd2018-471ab.appspot.com"
  },
  "client": [
    {
      "client_info": {
        "mobilesdk_app_id": "1:286438474335:android:05a74d73b922a197",
        "android_client_info": {
          "package_name": "zenkeviciute.migle.bbd"
        }
      },
      "oauth_client": [
        {
          "client_id": "286438474335-89pb5b5fs3v109ck3s69k26i8iuf7rj5.apps.googleusercontent.com",
          "client_type": 3
        }
      ],
      "api_key": [
        {
          "current_key": "AIzaSyDezi5Becc89wGkiLzxxwfKGit9h88Edxk"
        }
      ],
      "services": {
        "analytics_service": {
          "status": 1
        },
        "appinvite_service": {
          "status": 1,
          "other_platform_oauth_client": []
        },
        "ads_service": {
          "status": 2
        }
      }
    }
  ],
  "configuration_version": "1"
}